…
    ## Warning: Values are not uniquely identified; output will contain list-cols.
    ## * Use `values_fn = list` to suppress this warning.
    ## * Use `values_fn = length` to identify where the duplicates arise
    ## * Use `values_fn = {summary_fun}` to summarise duplicates

    ## Warning: `cols` is now required when using unnest().
    ## Please use `cols = c(`(Intercept)`, tmin)`

``` r
log_boot_results
```

    ## # A tibble: 5,000 x 3
    ##    intercept  tmin log_est
    ##        <dbl> <dbl>   <dbl>
    ##  1      7.16  1.04    2.01
    ##  2      7.47  1.01    2.02
    ##  3      6.86  1.06    1.98
    ##  4      6.89  1.06    1.99
    ##  5      7.44  1.03    2.04
    ##  6      7.18  1.05    2.02
    ##  7      7.03  1.05    2.00
    ##  8      7.37  1.01    2.00
    ##  9      7.48  1.02    2.03
    ## 10      7.06  1.04    1.99
    ## # … with 4,990 more rows
…
